{
  "By": "lew", 
  "Contents": " โนเกียเปิดตัวแพลตฟอร์ม IMPACT (Intelligent Management Platform for All Connected Things) สำหรับการจัดการอุปกรณ์ IoT ตั้งแต่การเก็บข้อมูลจากเซ็นเซอร์, การจัดการเหตุการณ์ที่เข้ามา, วิเคราะห์ข้อมูล, ไปจนถึงการจัดการความปลอดภัย IMPACT เป็นศูนย์กลางให้กับอุปกรณ์ ตัวมันเองใช้จัดการงานตามปกติเช่นการกวาดข้อมูลเซ็นเซอร์, การจัดการเฟิร์มแวร์, ตรวจสอบการทำงานของอุปกรณ์ เชื่อมต่อเหตุการณ์จากเซ็นเซอร์ต่างๆ เข้ากับกระบวนการทำงาน เช่น แจ้งเตือนผู้เกี่ยวข้อง ตัวเซิร์ฟเวอร์ทำหน้าที่รับประกันว่าข้อมูลจะถึงปลายทาง ตั้งแต่การทำงานเป็นคลัสเตอร์, การรองรับโหนดสำรอง, และจัดการส่งซ้ำในกรณีที่ติดต่อปลายทางไม่สำเร็จ โนเกียระบุว่า IMPACT จะเชื่อมต่ออุปกรณ์ได้หลายโปรโตคอล แต่โปรโตคอลสำคัญคือ CDP (Connected Device Platform) ของโนเกียที่ได้มาจากการเข้าซื้อ Alcatel-Lucent มีอุปกรณ์ในท้องตลาดแล้ว 80,000 รุ่น แต่นับรวมตั้งแต่โมเด็มบรอดแบนด์ไปจนถึงอุปกรณ์ IoT ที่มา - Nokia    ", 
  "Date": "15/June/2016", 
  "Image-Link": [
    "https://www.blognone.com/sites/default/files/styles/thumbnail/public/topics-images/nokia.png?itok=b6obgyXg", 
    "//upic.me/i/0h/screenshot_2016-06-15_00-15-52.png", 
    "/sites/all/themes/blognone42/images/linebutton.png"
  ], 
  "Link": "https://www.blognone.com/node/82254", 
  "News": "โนเกียเปิดตัว IMPACT ระบบจัดการอุปกรณ์ IoT และประมวลผลข้อมูล", 
  "Tags": [
    "Nokia", 
    "Internet of Things"
  ], 
  "Time": "00:16"
}