{
  "By": "trinakub", 
  "Contents": " เกม We Happy Few เป็นโปรเจคที่เกิดขึ้นจากการระดมทุนและพัฒนาโดยค่าย Compulsion Games ผ่าน Kickstarter ล่าสุดประกาศเปิดตัว Steam Early Access และ Xbox Preview วันที่ 26 กรกฎาคม 2559 (ในปัจจุบันตัวเกมยังอยู่ในระยะ Pre-Alpha) เนื้อเรื่องของเกมอยู่ใน \"โลกคู่ขนาน\" หลังสงครามโลกครั้งที่ 2 ณ เมือง Wellington Wells ประเทศอังกฤษ ปี 1964 ประชากรภายในเมืองจะเสพติดการใช้ยาที่ชื่อว่า “Joy” ยาเสพติดชนิดหนึ่งที่ทำให้เกิดภาพหลอนและมีความสุข หากใครปฏิเสธการเสพยาจะถูกผู้คนในเมืองตราหน้าว่าเป็น “Downer” และจะถูกตามไล่ล่าด้วยวิธีการต่าง ๆ เพื่อให้กลับมาเสพยาอีกครั้งให้ได้ เราจะได้รับบทเป็น Arthur Hastings ผู้ตัดสินใจเลิกยาและค้นพบความจริงถึงผลข้างเคียงที่เกิดจากยา Joy ทำให้ Arthur ตัดสินใจหาทางเอาตัวรอดและหนีออกจากเมืองแห่งนี้ We Happy Few เป็นเกม First Person Survival ในลักษณะของ Roguelike โดยผู้เล่นจะต้องหาทางเอาตัวรอดออกจากเมืองไปให้ได้ ในระหว่างทางหนีออกจากเมืองผู้เล่นจะต้องใช้วิธีการต่าง ๆ นา ๆ เพื่อไม่ให้คนในเมืองจับได้ว่าตัวเองเป็น Downer Compulsion Games บอกว่านี่ไม่ใช่เกมพรางตัว (Stealth-Based) แต่ทำให้ตัวเองกลมกลืนกับสภาพแวดล้อมรอบตัวในขณะที่กำลังหาทางหลบหนีต่างหาก  ที่มา - RockPaperShotgun   ", 
  "Date": "16/June/2016", 
  "Image-Link": [
    "https://www.blognone.com/sites/default/files/styles/thumbnail/public/news-thumbnails/WeHappyFew_Logo_Color.png?itok=Oq956HDa", 
    "http://i.imgur.com/Erm5ZQc.jpg", 
    "/sites/all/themes/blognone42/images/linebutton.png"
  ], 
  "Link": "https://www.blognone.com/node/82316", 
  "News": "We Happy Few เกมเอาตัวรอดและหลบหนีออกจากเมือง เปิดให้เล่นแบบ Early Access", 
  "Tags": [
    "We Happy Few", 
    "Games"
  ], 
  "Time": "01:55"
}