{
  "By": "Sirbank", 
  "Contents": " กระแสของ Cybersecurity กำลังมาแรง มีหลายองค์กรชั้นนำให้ความสนใจเป็นอย่างมาก หนึ่งในนั้นคือ ซิสโก้ ตอนนี้ทางซิสโก้เพิ่มแขนงในการสอบใบรับรองระดับ CCNA เพิ่มในชื่อว่า CCNA Cyber Ops เนื้อหาเป็นพื้นฐานความรู้เบื้องต้นในการวิเคราะห์ด้านความปลอดภัย เพื่อนำไปในการทำงานในศูนย์ปฏิบัติการ Security Operations Center (SOC) ข้อสอบจะเน้นในหัวข้อดังนี้  Monitoring security systems and maintaining a secure environment Detecting cyberattacks and security events Gathering and analyzing evidence Correlating information Coordinating responses to security incidents  ใบรับรองใหม่จะเริ่มเปิดให้สอบได้ในเดือนพฤศจิกายน 2559 ที่มา - Learning@Cisco    ", 
  "Date": "15/June/2016", 
  "Image-Link": [
    "https://www.blognone.com/sites/default/files/styles/thumbnail/public/topics-images/cisco.png?itok=g5qUC7lL", 
    "http://i.imgur.com/kj6ry8e.jpg", 
    "/sites/all/themes/blognone42/images/linebutton.png"
  ], 
  "Link": "https://www.blognone.com/node/82252", 
  "News": "ซิสโก้เปิดใบรับรอง CCNA ใหม่ Cyber Ops วิเคราะห์ความปลอดภัยสำหรับศูนย์ปฏิบัติการ", 
  "Tags": [
    "Cisco", 
    "Cybersecurity", 
    "Security", 
    "Certification"
  ], 
  "Time": "06:47"
}