{
  "By": "nutmos", 
  "Contents": " Telegram ได้ออกอัพเดตเวอร์ชันใหม่ 3.10 โดยมีฟีเจอร์ที่สำคัญคือ draft หรือฟีเจอร์ร่างข้อความ โดยแชทที่มีข้อความที่ร่างไว้แต่ยังไม่ส่งจะถูกเลื่อนขึ้นไปด้านบน และจะถูกซิงค์ไปยังทุกอุปกรณ์ เช่น เริ่มพิมพ์ข้อความบนมือถือ และทำเป็นร่างข้อความไว้ก่อนและไปพิมพ์ต่อบนคอมพิวเตอร์ได้ ส่วนฟีเจอร์อื่น ๆ สำหรับการอัพเดตครั้งนี้ เช่น  Picture-in-Picutre สำหรับ iOS โดยเมื่อเปิดวิดีโอจาก YouTube หรือ Vimeo บน Telegram จะมีปุ่มเพื่อดึงวิดีโอออกมาเพื่อดูต่อขณะกำลังทำงานอย่างอื่นบนแอพ Telegram video player ในแอพสำหรับ Android โดยผู้ใช้ Telegram บน Android สามารถดูวิดีโอได้เลยภายในแอพ (เฉพาะ Android 4.1 หรือใหม่กว่า) ปุ่ม Scroll to bottom สำหรับเลื่อนลงไปอ่านข้อความด้านล่าง มีตัวเลขบอกจำนวนข้อความที่ยังไม่ได้อ่านสำหรับแอพบน Android และเดสก์ท็อปแล้ว สามารถดูภาพโปรไฟล์สำหรับกลุ่มได้ทั้งหมด ไม่ใช่เฉพาะภาพล่าสุด  ที่มา - Telegram   ", 
  "Date": "15/June/2016", 
  "Image-Link": [
    "https://www.blognone.com/sites/default/files/styles/thumbnail/public/topics-images/m6BFtJQW.png?itok=UA233Sfu", 
    "/sites/all/themes/blognone42/images/linebutton.png"
  ], 
  "Link": "https://www.blognone.com/node/82262", 
  "News": "Telegram ออกอัพเดต: รองรับการร่างข้อความ, Picture-in-Picture บน iOS", 
  "Tags": [
    "Telegram"
  ], 
  "Time": "07:56"
}