{
  "By": "nuntawat", 
  "Contents": " Opera อัพเดตแอป Opera เวอร์ชันเต็มบน Android และ Opera Mini บน iOS และ Windows Phone โดยเพิ่มฟีเจอร์บล็อคโฆษณาแล้ว หลังจากเพิ่มฟีเจอร์ดังกล่าวลง Opera เดสก์ทอปและ Opera Mini for Android ไปก่อนหน้านี้ ข่าวนี้ดูจะเป็นข่าวดีของผู้ใช้ Windows Phone เพราะก่อนหน้านี้บริษัทประกาศระงับการพัฒนาเบราว์เซอร์บนแพลตฟอร์มข้างต้นเป็นการชั่วคราว ครับ ที่มา: Opera   ", 
  "Date": "17/June/2016", 
  "Image-Link": [
    "https://www.blognone.com/sites/default/files/styles/thumbnail/public/topics-images/opera-500.png?itok=df7AEFnP", 
    "/sites/all/themes/blognone42/images/linebutton.png"
  ], 
  "Link": "https://www.blognone.com/node/82357", 
  "News": "เบราว์เซอร์ Opera บน Android, iOS และ Windows Phone มีฟีเจอร์บล็อคโฆษณาแล้ว", 
  "Tags": [
    "Opera", 
    "Windows Phone", 
    "Ad Blocking", 
    "iOS", 
    "Browser"
  ], 
  "Time": "08:05"
}