{
  "By": "nutmos", 
  "Contents": " เมื่อวานมีข่าว Apple ปรับลดรายได้จากการบอกรับสมาชิกของแอพว่าในปีที่สองจะให้รายได้กับผู้สร้างคอนเทนต์เพิ่มขึ้นจาก 70% เป็น 85% ล่าสุดทางผู้บริหารของ Spotify ได้ออกมาให้สัมภาษณ์ บอกว่าเป็นการเปลี่ยนแปลงที่ดี แต่ไม่เข้าถึงแก่นของปัญหา Jonathan Prince ผู้บริหารของ Spotify ได้ให้สัมภาษณ์กับ The Verge ว่านี่เป็นการขยับเขยื้อนที่ดี แต่ไม่ได้เข้าถึงแก่นของปัญหาของภาษี Apple และระบบจ่ายเงิน ถ้า Apple ไม่เปลี่ยนกฏ ความยืดหยุ่นในด้านราคาก็ยังไม่มี ฉะนั้นเราก็ยังไม่มีการมอบสิทธิพิเศษหรือการลดราคาให้ และ Apple ยังคงยืนกรานอยู่ระหว่างนักพัฒนาและผู้ใช้ ซึ่งทำให้นักพัฒนาไม่สามารถเข้าถึงลูกค้าได้เท่าที่ควร โดยเฉพาะผู้ที่ต้องการผู้ใช้ที่บอกรับสมาชิกในระยะยาว Spotify เคยแนะนำให้ผู้ใช้บริการของตัวเองบน iOS สมัครบริการผ่านเว็บแทน App Store เนื่องจากราคาที่สมัครผ่าน App Store อยู่ที่ 12.99 ดอลลาร์ สูงกว่าที่ Spotify คิดจากการสมัครผ่านหน้าเว็บที่ 9.99 ดอลลาร์ เพื่อหักส่วนแบ่ง 30% ไปให้ Apple ที่มา - The Verge   ", 
  "Date": "10/June/2016", 
  "Image-Link": [
    "https://www.blognone.com/sites/default/files/styles/thumbnail/public/topics-images/spotify500.png?itok=skNKsnYA", 
    "/sites/all/themes/blognone42/images/linebutton.png"
  ], 
  "Link": "https://www.blognone.com/node/82090", 
  "News": "ผู้บริหาร Spotify ให้สัมภาษณ์ บอกการปรับรายได้ของ App Store ถือว่าดี แต่ยังไม่เข้าถึงแก่นของปัญหา", 
  "Tags": [
    "Spotify", 
    "Apple", 
    "App Store"
  ], 
  "Time": "09:12"
}