{
  "By": "twometre", 
  "Contents": " หัวอกคนเป็นพ่อเป็นแม่เวลาอยู่ห่างลูกก็คงเป็นห่วงไม่น้อย อุปกรณ์อย่างพวกกล้องส่องลูกจึงบูมมากในช่วงหลัง ล่าสุด Philips โชว์นวัตกรรมกล้องที่จับจังหวะการหายใจ และการเต้นของหัวใจในวัตถุที่กล้องจับได้จากระยะไกล ซึ่งไม่ใช่เรื่องใหม่ แต่ Philips วัดสิ่งนี้ด้วยการตรวจจับออกซิเจนในกระแสเลือดครับ ซึ่งแม่นยำกว่าวิถีเดิมที่มีโอกาสคลาดเคลื่อนจากสีผิวหรือภาวะผู้ป่วยในช่วงเวลานั้นที่อาจตื่นเต้นเมื่อถูกตรวจ แนวคิดนี้ยังอยู่ไม่ได้ผลิตออกมาเป็นผลิตภัณฑ์ในตอนนี้ และอาจประยุกต์ไปใช้เชิงการแพทย์อื่นด้วยครับ ที่มา - Engadget    ", 
  "Date": "12/June/2016", 
  "Image-Link": [
    "https://www.blognone.com/sites/default/files/styles/thumbnail/public/topics-images/philips.png?itok=i4ZpWIGJ", 
    "//upic.me/i/fk/2download.jpg", 
    "/sites/all/themes/blognone42/images/linebutton.png"
  ], 
  "Link": "https://www.blognone.com/node/82159", 
  "News": "กล้องเบบี้มอนิเตอร์จาก Philips โชว์เหนือ จับจังหวะหัวใจเจ้าตัวน้อย", 
  "Tags": [
    "Philips", 
    "Baby", 
    "Health"
  ], 
  "Time": "10:35"
}