{
  "By": "nuntawat", 
  "Contents": " ไมโครซอฟท์ปล่อย Cumulative Update ประจำเดือนมิถุนายน ให้ Windows 10 และ Windows 10 Mobile โดยเมื่ออัพเดตแล้วระบบปฏิบัติการทั้งสองจะขยับเลขรุ่นเป็น 10586.420 รายละเอียดการปรับปรุงมีดังนี้ Windows 10  ปรับปรุงเสถียรภาพ IE11, Microsoft Edge, Cortana, การเล่นเสียง, การเล่นเสียงใน Groove Music, Maps, Miracast และ Windows Explorer แก้บั๊กการแจ้งเตือนแบบ balloon tip ที่ขึ้นด้านบนซ้ายของหน้าจอเสมอ แก้บั๊ก VPN ไม่ทำงานตามที่ควรจะเป็นเมื่อสลับการเชื่อมต่อ (อาทิ ระหว่าง Wi-Fi และ cellular) ปรับปรุงการอ่าน bulleted list, ลิงก์ และข้อมูลภาพของ Narrator แก้บั๊กในการระบุตำแหน่งที่ตั้งซึ่งทำให้แอปนำทางจับตำแหน่งได้ล้าหลังกว่าตำแหน่งที่แท้จริง ปรับปรุงประสิทธิภาพในการโหลดหน้าเว็บบน IE11 แก้บั๊กใน Microsoft Edge, IE11, Bluetooth, Cortana, Wi-Fi, แอป Windows Camera, เวลาออมแสง (daylight saving time), USB, TPM, Graphics, Group Policy, การดาวน์โหลดเพลงหรือภาพยนตร์ที่ถูกซื้อบน Windows Store, Network Diagnostics และ Windows Explorer แก้บั๊กด้านความปลอดภัยบน IE11, Microsoft Edge, Server Message Block (SMB) Server, Microsoft Graphics Component, Group Policy, DNS Server, Windows Diagnostic Hub, ไดรเวอร์ Kernel mode, Microsoft Windows PDF, Windows Structured Query, Adobe Flash Player, JScript และ VBScript, และ Web Proxy Autodiscovery Protocol (WPAD)  ที่มา: Microsoft - Windows 10 update history Windows 10 Mobile  ปรับปรุงความน่าเชื่อถือ ประสิทธิภาพ และเสถียรภาพโดยรวม ปรับปรุงและแก้บั๊กของ Cortana แก้บั๊กที่ทำให้แบตเตอรี่หมดเร็วขณะซิงก์อีเมลด้วย IMAP ปรับปรุงแอป Maps รวมถึงเสถียรภาพ ความแม่นยำ และลดความหน่วงขณะนำทางขับรถ ปรับปรุงเสถียรภาพของการซิงก์ SMS จากมือถือไปกลุ่มเมฆ ลดระยะเวลาที่มือถือบางรุ่นใช้ปิดเครื่องหลังจากขึ้นข้อความ \"Goodbye\" แก้บั๊กที่ทำให้มือถือบางรุ่นไม่สามารถเพิ่มบัญชีหลัก Microsoft account โดยไม่รีเซ็ตเครื่องได้ หลังอัพเกรดจาก WP8.1 แก้บั๊กที่ทำให้มือถือบางรุ่นไม่สามารถติดตั้งคีย์บอร์ดและภาษาเพิ่มเติมโดยไม่รีเซ็ตเครื่องได้ หลังอัพเกรดจาก WP8.1 ลดระยะเวลาที่เครื่องสามารถทำงานต่อได้โดยไม่ต้องรีสตาร์ทหลังอัพเดต จาก 14 เหลือ 7 วัน แก้บั๊กที่ทำให้มือถือหยุดเล่นเสียงเรียกเข้าเมื่อถูกขัดจังหวะด้วย SMS แก้บั๊กที่ทำให้ Project My Screen หยุดทำงานบนมือถือบางรุ่น  ที่มา: Microsoft Community   ", 
  "Date": "15/June/2016", 
  "Image-Link": [
    "https://www.blognone.com/sites/default/files/styles/thumbnail/public/topics-images/Windows_logo_Cyan_rgb_D.png?itok=bKOyx4bD", 
    "/sites/all/themes/blognone42/images/linebutton.png"
  ], 
  "Link": "https://www.blognone.com/node/82284", 
  "News": "ไมโครซอฟท์ปล่อยอัพเดต Windows 10/Windows 10 Mobile รอบมิถุนายน", 
  "Tags": [
    "Windows 10", 
    "Windows 10 Mobile", 
    "Microsoft"
  ], 
  "Time": "12:51"
}