{
  "By": "nrad6949", 
  "Contents": " เรื่องนี้อาจเป็นข่าวชวนหัว แต่ก็สะท้อนความเป็นจริงอะไรบางอย่างไม่ใช่น้อย เมื่อเว็บไซต์ข่าวไอที TechWorm รายงานว่าผู้ใช้ Reddit ที่มีชื่อว่า FiletofFish1066 ซึ่งมีอาชีพเป็นโปรแกรมเมอร์ ถูกให้ออกจากงาน หลังจากที่บริษัทซึ่งเขาเคยทำงานอยู่ด้วย พบว่าเขาเขียนบอทขึ้นมาทำงานแทนเขาเองเป็นเวลานานกว่า 6 ปี เขาระบุไว้ในโพสต์ของ Reddit ว่าหลังจากที่ได้งานเมื่อ 6 ปีที่แล้วในบริษัทแห่งหนึ่ง (ไม่มีการระบุว่าบริษัทไหน) ในตำแหน่งที่รับผิดชอบการทดสอบซอฟต์แวร์ เขาก็เขียนบอทขึ้นมาเพื่อช่วยทดสอบโปรแกรม โดยใช้เวลาพัฒนามันนานกว่า 8 เดือน ก่อนที่จะทำสำเร็จ และใช้บอททำงานแทนเรื่อยมาตลอด ทำให้เขามีเวลาว่างมากจนถึงขนาดเล่นเกมอย่าง League of Legends และไปออกกำลังกายที่ยิมได้ โดยที่บริษัทยังจ่ายเงินเดือนให้กับเขาตามปกติ เฉลี่ยปีละ 95,000 ดอลลาร์สหรัฐ แน่นอนว่าเมื่อบริษัทจับได้ เขาก็ถูกไล่ออก แต่สิ่งที่สำคัญมากกว่านั้นคือเขาบอกว่าลืมทักษะเกี่ยวกับการเขียนโปรแกรมไปหมดแล้ว รวมถึงลบผู้ใช้ของเขาบน Reddit หลังจากแชร์เรื่องของตัวเองในภายหลัง ซึ่งถ้าเป็นเรื่องจริงก็นับว่าเป็นความตลกร้ายไม่ใช่น้อย ที่มา - Reddit (ผ่าน archive.org) ผ่าน TechWorm  ภาพประกอบข่าวจาก Pexels   ", 
  "Date": "11/June/2016", 
  "Image-Link": [
    "https://www.blognone.com/sites/default/files/styles/thumbnail/public/topics-images/Flag_of_the_United_States.svg_.png?itok=D_Hwf4EE", 
    "https://i.imgur.com/wg5TWZb.jpg", 
    "/sites/all/themes/blognone42/images/linebutton.png"
  ], 
  "Link": "https://www.blognone.com/node/82146", 
  "News": "โปรแกรมเมอร์ในสหรัฐฯ โดนไล่ออก หลังบริษัทจับได้ว่าเขียนบอทช่วยทำงานมานานกว่า 6 ปี", 
  "Tags": [
    "Programming", 
    "USA"
  ], 
  "Time": "12:57"
}