{
  "By": "sunnywalker", 
  "Contents": " เมื่อต้นเดือนที่ผ่าน Facebook ออกมาประกาศว่า พยายามทำให้ Safety Check เสถียรมากขึ้น เพราะถูกตั้งคำถามเรื่องระบบเปิดใช้ในคืนก่อการร้ายที่ปารีส แต่กลับไม่แจ้งเตือนในคืนที่มีระเบิดในเบรุตทั้งที่ห่างกันวันเดียว ล่าสุดในเหตุการณ์กราดยิงในเมือง Orlando ระบบ Facebook Safety Check ได้เปิดใช้งานเป็นครั้งแรกในอเมริกา เหตุการณ์กราดยิงใน Pulse ผับที่เน้นกลุ่มลูกค้าเพศทางเลือกที่ Orlando ถือว่าเป็นเหตุกราดยิงที่ใหญ่ที่สุดในอเมริกาเพราะมีผู้เสียชีวิตกว่า 50 คน สร้างความสลดเสียใจไปทั่วโลก  ภาพหน้าจอ Facebook Safety Check ใน Orlando ที่มา - Venture Beat   ", 
  "Date": "13/June/2016", 
  "Image-Link": [
    "https://www.blognone.com/sites/default/files/styles/thumbnail/public/topics-images/fb-500.png?itok=7KEmyKx1", 
    "http://i.imgur.com/2rKQtPA.png", 
    "/sites/all/themes/blognone42/images/linebutton.png"
  ], 
  "Link": "https://www.blognone.com/node/82195", 
  "News": "Facebook Safety Check เปิดใช้งานครั้งแรกในอเมริกา จากเหตุกราดยิงที่ Orlando ", 
  "Tags": [
    "Facebook", 
    "USA", 
    "Terrorism"
  ], 
  "Time": "13:49"
}