{
  "By": "nismod", 
  "Contents": " ภายในงาน E3 ที่จัดขึ้นในนครลอสแองเจลิส Telltale Games ผู้ผลิตเกมชื่อดังอย่าง The Walking Dead และ The Wolf Among Us ได้เผยโฉมเทรลเลอร์แรกของเกม The Walking Dead: Season 3 ที่แฟนๆ รอกันมานานแล้วครับ เทรลเลอร์เผยให้เห็นการกลับมาของ Clementine ตัวเอกจาก 2 ภาคแรก พร้อม Javier ตัวละครใหม่ที่จะร่วมผจญภัยไปกับ Clem โดยทาง Telltale ระบุว่าคราวนี้ผู้เล่นสามารถเล่นได้ทั้ง Clementine และ Javier แต่ยังคงไม่ได้ให้รายละเอียดอื่นเพิ่มเติม ขณะที่ตัวเลือกที่ผู้เล่นเลือกไว้ในตอนจบของ Season 2 (ถ้าผมจำไม่ผิดมีถึง 6 แบบ) จะคงยังส่งผลต่อภาคนี้เช่นเดิม The Walking Dead: Season 3 จะวางจำหน่ายช่วงฤดูใบไม้ร่วง (กันยายน-พฤศจิกายน) นี้ ที่มา - Tech Insider   ", 
  "Date": "13/June/2016", 
  "Image-Link": [
    "https://www.blognone.com/sites/default/files/styles/thumbnail/public/news-thumbnails/The_walking_dead_telltale_game_series_logo.png?itok=7oyWqFz0", 
    "/sites/all/themes/blognone42/images/linebutton.png"
  ], 
  "Link": "https://www.blognone.com/node/82196", 
  "News": "Telltale เผยเทรลเลอร์เกม The Walking Dead: Season 3 มาฤดูใบไม้ร่วงนี้", 
  "Tags": [
    "The Walking Dead", 
    "Games", 
    "Telltale Games"
  ], 
  "Time": "14:03"
}