{
  "By": "nismod", 
  "Contents": " ก่อนหน้านี้เคยมีข่าวว่า Google Fiber เล็งจะขยายบริการ Google Fiber เป็นแบบบรอดแบรนด์ไร้สาย ล่าสุด Eric Schmidt ประธานบริษัท Alphabet ออกมาให้รายละเอียดแล้วว่าน่าจะเป็นการใช้ Gigabit Wi-Fi จุดเด่นของ Gigabit Wi-Fi คือใช้มาตรฐาน 802.11ac และปล่อยบนคลื่นความถี่ 5GHz เท่านั้น แต่ส่งข้อมูลได้เร็วกว่า เพียงแต่จุดอ่อนของการใช้คลื่นความถี่ 5GHz คือความสามารถในการทะลุทะลวงสิ่งกีดขวางค่อนข้างต่ำ ซึ่งคาดว่า Google จะใช้เทคโนโลยีนี้ในการส่งสัญญาณอินเทอร์เน็ตแบบไร้สายไปยังชุมชนหรือหมู่บ้านในพื้นที่ห่างไกล เพราะจะมีค่าใช้จ่ายที่ถูกกว่าการลากสายไฟเบอร์เข้าไปยังตัวบ้าน ที่มา - The Verge via Engadget   ", 
  "Date": "10/June/2016", 
  "Image-Link": [
    "https://www.blognone.com/sites/default/files/styles/thumbnail/public/topics-images/google-fiber.png?itok=BHs2UVD5", 
    "/sites/all/themes/blognone42/images/linebutton.png"
  ], 
  "Link": "https://www.blognone.com/node/82120", 
  "News": "Google Fiber กำลังเล็งใช้ Gigabit Wi-Fi แทนการลากสายเข้าบ้าน", 
  "Tags": [
    "Google Fiber", 
    "Google", 
    "Wireless Broadband", 
    "Alphabet"
  ], 
  "Time": "14:16"
}