{
  "By": "mk", 
  "Contents": " ผู้ใช้ Android รุ่นแรกๆ คงคุ้นกับชื่อ ADW Launcher ที่ช่วงหลังเงียบหายไปนาน (แอพอัพเดตครั้งสุดท้ายในปี 2013) แต่จริงๆ แล้วแอพยังไม่หายไปไหน และทีมงานกำลังพัฒนา ADW Launcher 2.0 ที่ยกเครื่องครั้งใหญ่ เขียนขึ้นมาใหม่ทั้งหมด ของใหม่ใน ADW Launcher 2.0 มีทั้งเรื่องประสิทธิภาพที่ปรับปรุงมากขึ้น และฟีเจอร์/ตัวเลือกในการปรับแต่งที่มากขึ้นกว่าเดิม ตอนนี้ ADW Launcher 2.0 ยังอยู่ในขั้นเบต้า คนที่สนใจสามารถร่วมทดสอบได้ตามลิงก์ต้นทาง (แอพยังไม่ลง Play Store) ที่มา - AWD Launcher, Android Community   ", 
  "Date": "19/June/2016", 
  "Image-Link": [
    "https://www.blognone.com/sites/default/files/styles/thumbnail/public/news-thumbnails/adw.png?itok=dP7fACy-", 
    "/sites/all/themes/blognone42/images/linebutton.png"
  ], 
  "Link": "https://www.blognone.com/node/82428", 
  "News": "ADW Launcher ยังไม่ตาย เตรียมออกเวอร์ชัน 2.0 ยกเครื่องใหม่ทั้งหมด", 
  "Tags": [
    "Android", 
    "Mobile App"
  ], 
  "Time": "14:54"
}