{
  "By": "nismod", 
  "Contents": " เว็บไซต์ Business Korea รายงานว่า LG ประสบความสำเร็จในการพัฒนาสมาร์ทโฟน ที่รองรับการชาร์จไร้สายด้วยคลื่นแม่เหล็กในรูปแบบของ Magnetic Resonance ซึ่งจะช่วยให้ชาร์จแบตเตอรี่ได้ไกลสูงสุด 7 เซนติเมตร และกำลังอยู่ระหว่างการวางแผนเพื่อนำออกสู่ตลาดด้วย การชาร์จแบบนี้จะแตกต่างจากการชาร์จไร้สาย ที่อาศัยหลักการเหนี่ยวนำแม่เหล็กตรงที่ว่า สมาร์ทโฟนจะไม่จำเป็นต้องอยู่ติดกับแท่นชาร์จ รวมถึงชาร์จได้รวดเร็วกว่า กำลังไฟที่สามารถรองรับได้สูงสุดถึง 7 วัตต์ นอกจาก LG ผู้ผลิตสมาร์ทโฟนของจีนหลายเจ้าอย่าง Huawei, Oppo และ Meizu ก็เตรียมนำเทคโนโลยีมาใช้ในสมาร์ทโฟนของตัวเองเร็วๆ นี้เช่นกัน ที่มา - Business Korea   ", 
  "Date": "15/June/2016", 
  "Image-Link": [
    "https://www.blognone.com/sites/default/files/styles/thumbnail/public/topics-images/lg.png?itok=fjh-dS4q", 
    "/sites/all/themes/blognone42/images/linebutton.png"
  ], 
  "Link": "https://www.blognone.com/node/82290", 
  "News": "[ไม่ยืนยัน] LG ประสบความสำเร็จพัฒนาสมาร์ทโฟนที่ชาร์จด้วยคลื่นแม่เหล็ก", 
  "Tags": [
    "LG", 
    "Mobile", 
    "Wireless Charging"
  ], 
  "Time": "14:52"
}