{
  "By": "nismod", 
  "Contents": " Sanford Wallace ชาวอเมริกันวัย 47 ปีที่เรียกตัวเองว่า Spam King ถูกศาลสั่งจำคุก 2 ปีครึ่งและปรับอีกหลายแสนเหรียญ ฐานปล่อยสแปมกว่า 27 ล้านครั้งไปยังผู้ใช้บนเฟซบุ๊ก หลังเจ้าตัวยอมรับความผิดต่อศาลเมื่อเดือนสิงหาคมปีที่แล้ว โดยศาลสั่งให้ Wallace เข้ารับการบำบัดทางจิตเวช รวมถึงห้ามครอบครองและใช้งานคอมพิวเตอร์หากไม่ได้รับอนุญาตด้วย Wallace ยอมรับว่าในช่วงเดือนพฤศจิกายน 2008 ถึงกุมภาพันธ์ 2009 เขาได้บัญชีเฟซบุ๊กกว่า 550,000 บัญชีจากการเปิดหน้าเว็บปลอมกว่า 1,500 เว็บและปล่อยสแปมไปยังบัญชีเฟซบุ๊กเหล่านั้นดังที่กล่าวไปข้างต้น รวมถึงยอมรับว่าละเมิดคำสั่งศาลที่ห้ามเขายุ่งเกี่ยวกับเฟซบุ๊กในปี 2009 ด้วย สาเหตุที่ Wallace เรียกตัวเองว่า Spam King เป็นเพราะตัวเขาเป็นนักปล่อยสแปมตัวยงและขึ้นศาลมาแล้วหลายครั้งนับตั้งแต่ปี 1995 ที่เขาเริ่มสแปมผ่านแฟ็กซ์และอีเมล์ โดยความเสียหายจากการปล่อยสแปมของ Wallace ทั้งหมดถูกประเมินไว้ว่าอยู่ที่ประมาณ 1 พันล้านเหรียญ ที่มา - NBC News   ", 
  "Date": "17/June/2016", 
  "Image-Link": [
    "https://www.blognone.com/sites/default/files/styles/thumbnail/public/topics-images/fb-500.png?itok=7KEmyKx1", 
    "/sites/all/themes/blognone42/images/linebutton.png"
  ], 
  "Link": "https://www.blognone.com/node/82380", 
  "News": "นักปล่อยสแปมถูกศาลสั่งจำคุก 2 ปีครึ่ง จากการส่งสแปมบนเฟซบุ๊กกว่า 27 ล้านครั้ง", 
  "Tags": [
    "Facebook", 
    "Spam", 
    "Crime", 
    "Lawsuit"
  ], 
  "Time": "15:06"
}