{
  "By": "nismod", 
  "Contents": " Sean Cummings รองประธานอาวุโสของ Harley-Davidson ผู้ผลิตมอเตอร์ไซค์บิ๊กไบค์ชื่อดังให้สัมภาษณ์ว่า บริษัทมีแผนจะพัฒนามอเตอร์ไซค์ไฟฟ้าให้ได้ภายในอีก 5 ปีข้างหน้า Harley-Davidson เคยเปิดตัวมอเตอร์ไซค์พลังไฟฟ้ามาแล้วในปี 2014 ชื่อว่า LiveWire ที่มีจุดอ่อนสำคัญคือสามารถวิ่งได้ไกลสูงสุดแค่ 60 ไมล์ (96 กม.) ต่อการชาร์จ 1 ครั้ง ดังนั้นความท้าทายของ Harley-Davidson ในการผลิตมอเตอร์ไซค์ไฟฟ้ารุ่นก็คือการแก้ปัญหาตรงนี้ เนื่องจากพื้นที่ที่เก็บแบตเตอรี่บนมอเตอร์ไซค์ ไม่ได้มีมากเท่ากับรถยนต์ ที่มา - Autoblog via Engadget LiveWire ที่เปิดตัวในปี 2014     ", 
  "Date": "15/June/2016", 
  "Image-Link": [
    "https://www.blognone.com/sites/default/files/styles/thumbnail/public/news-thumbnails/Harley-Davidson.svg_.png?itok=PY9vE7bc", 
    "https://c8.staticflickr.com/8/7342/27683948935_98eeb90acd_z.jpg", 
    "https://c7.staticflickr.com/8/7037/27405422070_52c950e2dd_z.jpg", 
    "/sites/all/themes/blognone42/images/linebutton.png"
  ], 
  "Link": "https://www.blognone.com/node/82291", 
  "News": "Harley-Davidson เตรียมพัฒนารถมอเตอร์ไซค์ไฟฟ้าภายใน 5 ปีข้างหน้า", 
  "Tags": [
    "Automobile"
  ], 
  "Time": "15:04"
}