{
  "By": "mk", 
  "Contents": " Valve อัพเดตฟีเจอร์ใหม่ให้จอยเกม Steam Controller โดยเพิ่มฟีเจอร์ Activators ให้ผู้เล่นสามารถปรับแต่งปุ่มการควบคุมได้อย่างอิสระ Activators จะอยู่ตรงกลางระหว่างอินพุตจากจอย Steam Controller (เช่น กดปุ่ม กดค้าง กดสองที) กับเอาท์พุตที่เทียบได้จากการกดปุ่มในคีย์บอร์ด การควบคุมจะยืดหยุ่นถึงขนาดเราตั้งค่าให้กดปุ่มเดียวทำงานได้หลายอย่าง (อินพุตเดียว หลายเอาท์พุต) รวมถึงกดปุ่มเดียวแล้วเปลี่ยนการกระทำไปเรื่อยๆ ตามโหมดที่ตั้งค่าไว้ ตอนนี้ Activators ยังมีสถานะเป็นเบต้า โดยต้องใช้งานร่วมกับ Steam Beta Client ด้วย ที่มา - Steam, Kotaku    ", 
  "Date": "19/June/2016", 
  "Image-Link": [
    "https://www.blognone.com/sites/default/files/styles/thumbnail/public/topics-images/steam.png?itok=APMuxEYH", 
    "http://i.imgur.com/gh3n30d.png", 
    "/sites/all/themes/blognone42/images/linebutton.png"
  ], 
  "Link": "https://www.blognone.com/node/82429", 
  "News": "Valve เพิ่มฟีเจอร์ให้จอย Steam Controller ปรับแต่งปุ่มได้อย่างอิสระ", 
  "Tags": [
    "Steam Machine", 
    "Steam", 
    "Valve", 
    "Games", 
    "Hardware"
  ], 
  "Time": "15:08"
}