{
  "By": "magnamonkun", 
  "Contents": " หลังเปิดตัวเวอร์ชันใหม่บน PC/PS3 มาได้สามปีกว่า (PS4 มาในปี 2014) จนถึงวันนี้ หนึ่งในคำถามที่ถูกแฟนเกมถามกันมาตลอดคือ ฝั่ง Xbox จะได้เล่นเกมนี้กับเขาด้วยหรือไม่ ล่าสุดที่งาน E3 2016 Naoki Yoshida ผู้กำกับเกมภาคนี้ก็มีคำตอบในเรื่องนี้ออกมาเรียบร้อย Naoki ระบุว่าเดิมทีแล้ว Square Enix และทีม XIV มีแผนจะนำ Final Fantasy XIV: A Realm Reborn ลง Xbox One เช่นกัน แต่เนื่องจากนโยบายของไมโครซอฟท์ที่ไม่เปิดให้เกมสามารถเล่นข้ามแพลตฟอร์มกันได้ แผนทั้งหมดจึงถูกล้มไป แต่หลังจากที่ไมโครซอฟท์ประกาศเปลี่ยนนโยบายและจุดยืนใหม่โดยการสนับสนุนเกมข้ามแพลตฟอร์มที่ไม่ใช่แค่ Windows 10 มากขึ้น บริษัทจึงเข้าไปเสนอนำเกมลง Xbox One ให้ไมโครซอฟท์ฟังตั้งแต่นั้นเป็นต้นมา แต่หลังจากที่ได้พูดคุยแล้วก็พบว่า ไมโครซอฟท์ ยังไม่เข้าใจแนวทางของเกม MMO ที่เล่นพร้อมกันหลายคนหลายแพลตฟอร์ม และกฎที่ออกมาก็ยังไม่เอื้อให้บริษัทนำเกมไปลงได้ แต่บริษัทก็ยังไม่ถอดใจและเสนอให้ไมโครซอฟท์ปรับกฎบางข้อเพื่อรองรับเกม MMO ซึ่งคาดว่าจะมีมากขึ้นบน Xbox One ในอนาคตอีกด้วย ปัจจุบัน Naoki ระบุว่าทางทีมและบริษัทกำลังรอคำตอบจากไมโครซอฟท์ว่าผลจะออกมาเป็นอย่างไร ซึ่งถ้าไมโครซอฟท์เห็นด้วย บริษัทก็ไม่ปิดกั้นที่จะนำ Final Fantasy XIV: A Realm Reborn ลง Xbox One เช่นกัน แต่ ณ ขณะนี้ ทางทีมจะขอโฟกัสไปที่ PS3/PS4 และ PC ก่อนเป็นหลัก ซึ่งทั้งสามแพลตฟอร์มพึ่งจะได้อัพเดทแพตช์ Revenge of the Horde ไปเมื่ออาทิตย์ที่แล้ว รวมถึงบริษัทจะไม่ทิ้ง PS3 แต่อย่างใด และจะมีแพตช์อัพเดทให้อย่างต่อเนื่องครับ ที่มา - Polygon    ", 
  "Date": "18/June/2016", 
  "Image-Link": [
    "https://www.blognone.com/sites/default/files/styles/thumbnail/public/topics-images/final-fantasy.png?itok=J1HjXnRX", 
    "//upic.me/i/jd/realm5.jpg", 
    "/sites/all/themes/blognone42/images/linebutton.png"
  ], 
  "Link": "https://www.blognone.com/node/82408", 
  "News": "Square Enix สนใจนำเกม Final Fantasy XIV: A Realm Reborn ลง Xbox One", 
  "Tags": [
    "Final Fantasy", 
    "Games", 
    "Square Enix", 
    "Xbox One"
  ], 
  "Time": "15:38"
}