{
  "By": "sunnywalker", 
  "Contents": " Autodesk บริษัทผู้ผลิตซอฟต์แวร์ออกแบบสามมิติ จัดกิจกรรม University Asean ที่โรงแรมเซนทาราแกรนด์ กรุงเทพฯ เมื่อวานนี้ (16 มิ.ย.) โชว์นวัตกรรม เทคโนโลยี และผลิตภัณฑ์คอลเลคชั่นใหม่พร้อมทั้งเผยความคืบหน้าในประเทศไทย ด้วยการทำ MOU กับ สำนักงานพัฒนาวิทยาศาสตร์และเทคโนโลยีแห่งชาติ (สวทช.) ตั้งเป้าจัดตั้ง Digital Manufacturing Platform สนับสนุนแผนแม่บทเศรษฐกิจดิจิทัล เปิดโอกาสให้วิศวกร และบุคคลในสาขาอาชีพที่ต้องใช้เทคโนโลยีเข้าถึงเทคโนโลยีฟรี 3 ปี  สำหรับการทำลงนามความร่วมมือ ดร.กฤษณ์ไกรพ์ สิทธิเสรีประทีป นักวิจัยอาวุโส สวทช. ระบุว่า ประเทศไทยกำลังเผชิญกับ Digital Disruption และถ้าประเทศไทยไม่ปรับเปลี่ยน หรือ disrupt ตัวเองก่อน คนอ่นก็จะมา disrupt และเราทำได้แค่นั่งมอง เป่าหมายใหญ่ของ MOU ครั้งนี้คือ ยกระดับคุณภาพอุตสาหกรรม ให้นักลงทุนมาลงทุนในไทยมากขึ้น ขับเคลื่อนอุตสาหกรรมในไทยสู่ Digital Platform คาดว่าจะมีผลงานออกสู่สังคมภายในหกเดือน ด้านคอลเลคชั่นใหม่ของ Autodesk ประกอบด้วย  Package BIM ซอฟต์แวร์สำหรับสร้างอาคาร สถาปัตยกรรม โครงสร้างพื้นฐานการโยธา  คอลเลคชั่นการออกแบบผลิตภัณฑ์ เครื่องมือการออกแบบและวิศวกรรมที่ใช้ในโรงงาน คอลเลคชั่นสื่อและบันเทิง เครื่องมือออกแบบสามมิติ เพื่อเทคนิคภาพและพัฒนาเกม   นอกเหนือจากคอลเลคชั่นใหม่ ยังเสนอบริการคลาวด์ ซอฟต์แวร์การบริการที่หลากลาย คุณอาภาพร สุภรณ์ทิพย์ ผู้จัดการ Autodesk ประจำประเทศไทย พม่า ลาว กล่าวว่า Autodesk สนับสนุนซอฟต์แวร์ใช้ในสถานศึกษาฟรีมาหลายปีแล้ว รวมถึง Startup ที่มีทุนจดทะเบียนไม่เกิน 1 แสนดอลล่าร์  ก็สามารถเข้ามาดาวน์โหลดซอฟต์แวร์ไปใช้ได้ นอกจากนี้ยังมีโมเดลธุรกิจแบบใหม่คือ Subscription Model เรียกเก็บค่าบริการรายปีจากลูกค้าที่ส่วนใหญ่เป็นอุตสาหกรรมใหญ่ ซ้าย คุณอาภาพร สุภรณ์ทิพย์ ขวา ดร.กฤษณ์ไกรพ์ สิทธิเสรีประทีป พาชมงานกิจกรรม ภายในงานมีบูธโปรแกรมซอฟต์แวร์ต่างๆมาโชว์ด้วย เพื่อแสดงให้เห็นถึงการประยุกต์ใช้ซอฟต์แวร์ในอุตสาหกรรมต่างๆ เทคโนโลยีออกแบบ และพิมพ์ลายบนวัสดุจาก FabCafe สตาร์ทอัพด้านการออกแบบและ co-working space เครื่องพิมพ์ลาย โดยใช้ซอฟต์แวร์ดำเนินการพิมพ์ลายที่เขียนด้วยมทอเข้าไปในโปรแกรม และสั่งการให้เครื่องพิมพ์พิมพ์ออกมาบนวัตถุ ตัวอย่างสินค้าที่ใช้เครื่องพิมพ์ลาย ตัวอย่างเสื้อผ้าที่ผลิตด้วยเครื่องพิมพ์สามมิติ   ซอฟต์แวร์ด้านการโยธาธิการ การออกแบบผังเมือง ในโปรแกรมสามารถ ขยายถนน สร้างแบบแปลนเมืองได้ หรือคาดการณ์ความเป็นไปได้เรื่องน้ำท่วมรวมถึงการแก้ปัญหา Virtual Reality ในธุรกิจอสังหาริมทรัพย์ สามารถดูแบบบ้านหรือคอนโดได้ด้วยภาพสามมิติ ก่อนตัดสินใจซื้อ พูดถึง VR แล้วมักนึงเรื่องเกม บันเทิงเป็นหลัก แต่ในธุรกิจบ้าน รถ ก็สามารถใช้ประโยชน์จาก VR ได้  Virtual Reality ในธุรกิจรถยนต์ ดูภาพรวมภายในรถได้    ", 
  "Date": "17/June/2016", 
  "Image-Link": [
    "https://www.blognone.com/sites/default/files/styles/thumbnail/public/topics-images/autodesk.png?itok=yULa22NY", 
    "//i.imgur.com/WZGjmAI.jpg”", 
    "//i.imgur.com/aSxad19.jpg”", 
    "//i.imgur.com/h9lfBaW.jpg”", 
    "//i.imgur.com/IXWF5Fq.jpg”", 
    "//i.imgur.com/bv2Abcn.jpg”", 
    "//i.imgur.com/ZDG39Yz.jpg”", 
    "//i.imgur.com/LT6IL83.jpg”", 
    "//i.imgur.com/2mJdMSu.jpg”", 
    "//i.imgur.com/M8LnzhQ.jpg”", 
    "//i.imgur.com/uTUOvdv.jpg”", 
    "/sites/all/themes/blognone42/images/linebutton.png"
  ], 
  "Link": "https://www.blognone.com/node/82384", 
  "News": "พาเดินงาน Autodesk ชมการใช้เทคโนโลยี Maker และ VR กับภาคอุตสาหกรรมไทย", 
  "Tags": [
    "Autodesk", 
    "Thailand", 
    "IT Industry", 
    "Maker Movement"
  ], 
  "Time": "16:17"
}