{
  "By": "nismod", 
  "Contents": " ผู้ใช้เฟซบุ๊กน่าจะคุ้นชินกับการแสดงแบนเนอร์บนหน้านิวส์ฟีตของทางเฟซบุ๊ก เพื่อฉลองเนื่องในโอกาสต่างๆ และเมื่อวันที่ 12 มิถุนายนที่ผ่านมานี้เองก็เป็นวันประกาศอิสรภาพของฟิลิปปินส์ ซึ่งเฟซบุ๊กก็ไม่แคล้วจะแสดงแบนเนอร์ฉลองตามปกติ แต่สิ่งที่ผิดปกติก็คือธงฟิลิปปินส์ที่เฟซบุ๊กนำมาแสดง โดยปกติแล้วธงของฟิลิปปินส์จะมีสีน้ำเงินอยู่ด้านบนและสีแดงอยู่ด้านล่าง แต่ธงที่เฟซบุ๊กแสดงขึ้นแบนเนอร์มีสีแดงอยู่ข้างบนและสีน้ำเงินอยู่ด้านล่าง ซึ่งตามกฎหมายของฟิลิปปินส์แล้ว ธงนี้จะถูกใช้ในช่วงที่ประเทศอยู่ในภาวะสงคราม หลังทราบเรื่องทางเฟซบุ๊กก็ออกแถลงการณ์ขอโทษต่อความผิดพลาดที่เกิดขึ้นครับ ที่มา - Philippine Stars via The Verge  May 28-June 12 are the Flag Days; all citizens are encouraged to fly the Philippine colors: https://t.co/O6r6YTjkPd pic.twitter.com/iSVHP4X67V — Official Gazette PH (@govph) June 2, 2016   ", 
  "Date": "13/June/2016", 
  "Image-Link": [
    "https://www.blognone.com/sites/default/files/styles/thumbnail/public/topics-images/fb-500.png?itok=7KEmyKx1", 
    "https://c2.staticflickr.com/8/7767/27642086705_825a650d53_z.jpg", 
    "/sites/all/themes/blognone42/images/linebutton.png"
  ], 
  "Link": "https://www.blognone.com/node/82202", 
  "News": "เฟซบุ๊กฉลองวันประกาศอิสรภาพฟิลิปปินส์ แสดงธงผิดพลาดเป็นธงที่ใช้ช่วงสงคราม", 
  "Tags": [
    "Facebook", 
    "Philippines"
  ], 
  "Time": "16:11"
}