{
  "By": "nismod", 
  "Contents": " Xiaomi เริ่มขยายไลน์ของผลิตภัณฑ์ในกลุ่ม IoT/Smart Home มากขึ้นเรื่อยๆ ล่าสุดเปิดตัว Mi Smart Fan พัดลมอัจฉริยะ ที่รองรับการเชื่อมต่อกับสมาร์ทโฟนและ Mi Smart Home Suite ภายในบ้าน ผู้ใช้สามารถปรับองศา การหมุน โหมดและตั้งเวลาได้จากสมาร์ทโฟน รวมถึงพัดลมจะเปิดเองอัตโนมัติ หากมีคนเดินผ่านเซ็นเซอร์ที่หน้าประตู Xiaomi ระบุว่าพัดลมตัวนี้ได้รับการออกแบบใบพัดมาให้แตกต่างจากพัดลมทั่วไป จนสามารถเป่าลมออกมาแล้วได้ความรู้สึกเหมือนลมพัดจากธรรมชาติ รวมไปถึงแทบไม่มีเสียงรบกวน ด้วยความดังระหว่างทำงานแค่ 29dB Mi Smart Fan มาพร้อมแบตเตอรี่ขนาด 33.6 WH สามารถทำงานต่อเนื่องได้ถึง 16 ชั่วโมง น้ำหนักรวมอยู่ที่ 3.4 กิโลกรัม Mi Smart Fan วางจำหน่ายอยู่ที่ประมาณ 4,200 บาท ยังไม่ระบุวันวางจำหน่ายครับ ที่มา - MIUI    ภาพการเป่าลมของ Mi Smart Fan (ล่าง) เทียบกับพัดลมทั่วไป (บน)   ", 
  "Date": "16/June/2016", 
  "Image-Link": [
    "https://www.blognone.com/sites/default/files/styles/thumbnail/public/topics-images/xiaomi.png?itok=W_8-Phci", 
    "https://c6.staticflickr.com/8/7610/27705077885_9d5c8cf175_z.jpg", 
    "https://c4.staticflickr.com/8/7379/27705078275_8483c5fb22_z.jpg", 
    "https://c2.staticflickr.com/8/7256/27705078305_9a35cbaaf9_z.jpg", 
    "/sites/all/themes/blognone42/images/linebutton.png"
  ], 
  "Link": "https://www.blognone.com/node/82338", 
  "News": "Xiaomi เปิดตัว Mi Smart Fan พัดลมอัจฉริยะ", 
  "Tags": [
    "Xiaomi"
  ], 
  "Time": "16:38"
}