{
  "By": "mk", 
  "Contents": " Gawker Media Group บริษัทแม่ของเว็บไอทีชื่อดัง Gizmodo และเว็บเกม Kotaku ยื่นขอล้มละลายตามกฎหมายของสหรัฐอเมริกา หลังจากนี้ Gawker จะเข้าสถานะการฟื้นฟูกิจการ โดยบริษัทสื่อ Ziff Davis เจ้าของเว็บไซต์ไอทีหลายราย เช่น ExtremeTech, IGN, PC Magazine (ยกเว้น ZDNet ที่ขายกิจการไปแล้ว) จะเข้ามาซื้อทรัพย์สินทั้งหมดของ Gawker การล้มละลายของ Gawker มีความซับซ้อนสูง เพราะตอนนี้ Gawker กำลังมีคดีกับ Hulk Hogan นักมวยปล้ำชื่อดัง โดย Hulk ฟ้อง Gawker ข้อหาเผยแพร่คลิปหลุดของเขาที่มีสัมพันธ์กับภรรยาของคนอื่น (คลิปถูกเผยแพร่มาตั้งแต่ปี 2012 แต่ Hogan เพิ่งมาฟ้องในปีนี้) และเมื่อไม่นานมานี้ ก็มีข่าวว่า Peter Thiel หนึ่งในผู้ก่อตั้ง PayPal และบอร์ดของ Facebook ให้การสนับสนุนเรื่องเงินค่าฟ้องกับ Hogan ด้วย โดย Thiel เปิดเผยว่าเป็นเพราะ Gawker เคยลงข่าวโจมตีว่าเขาเป็นเกย์เมื่อปี 2007 Gawker ประกาศชัดเจนว่ายื่นขอล้มละลายเพื่อเอาสถานะคุ้มครองทางกฎหมาย (บริษัทจะมีสถานะพิเศษระหว่างรอฟื้นฟูกิจการ) เพื่อขายบริษัทให้ได้ราคาดีที่สุด และยืนยันว่าจะอุทธรณ์สู้คดีต่อไป ส่วนเว็บไซต์ในเครือจะยังให้บริการตามปกติ ที่มา - Gawker, Gizmodo, Recode   ", 
  "Date": "11/June/2016", 
  "Image-Link": [
    "https://www.blognone.com/sites/default/files/styles/thumbnail/public/topics-images/gawker.png?itok=FZK4mqi8", 
    "/sites/all/themes/blognone42/images/linebutton.png"
  ], 
  "Link": "https://www.blognone.com/node/82150", 
  "News": "Gawker Media บริษัทแม่ Gizmodo ยื่นขอล้มละลาย เตรียมขายกิจการเพื่อสู้คดีฟ้องร้อง", 
  "Tags": [
    "Gawker", 
    "Gizmodo", 
    "Lawsuit"
  ], 
  "Time": "18:18"
}