{
  "By": "trinakub", 
  "Contents": " Cloud9 นับเป็นสุดยอดทีมของเกม Heroes of the Storm จากฝั่งอเมริกา เมื่อเดือนตุลาคม 2014 ทีม Cloud9 โชว์ฟอร์มในการเป็นแชมป์โลกปีแรกของเกม Heroes of the Storm ที่งาน Blizzcon 2015 ในปี 2016 ทีม Cloud9 สามารถเอาชนะทีม Naventic และเข้าสู่รอบในรายการ Spring Global Championship ที่ประเทศ เกาหลีใต้แต่ผลงานก็ไม่ได้เป็นที่น่าพอใจนัก ล่าสุดวันที่ 9 มิถุนายน 2559 ต้นสังกัดได้ออกมาประกาศว่า ทีม Cloud9 จะไม่มีการแข่งขันเกม Heroes of the Storm อีกต่อไปแล้ว โดยขอขอบคุณแฟนๆ ที่คอยสนับสนุนมาตลอด และเชียร์จนเอาชนะแชมป์ Blizzcon 2015 ได้ Cloud9 ยังมีทีมสำหรับแข่ง eSport ในเกมอื่นๆ เช่น League of Legends, CS:GO, Overwatch, Hearthstone เป็นต้น ที่มา - Cloud9.gg     ", 
  "Date": "10/June/2016", 
  "Image-Link": [
    "https://www.blognone.com/sites/default/files/styles/thumbnail/public/topics-images/heroes.png?itok=8GeiL4ZU", 
    "http://i.imgur.com/NlV0Lq4.jpg", 
    "http://i.imgur.com/NSwODzC.jpg", 
    "/sites/all/themes/blognone42/images/linebutton.png"
  ], 
  "Link": "https://www.blognone.com/node/82098", 
  "News": "งานเลี้ยงย่อมมีวันเลิกรา Cloud9 ประกาศยุบทีม Heroes of the Storm แล้ว", 
  "Tags": [
    "Heroes of the Storm", 
    "Blizzard", 
    "MOBA", 
    "eSport"
  ], 
  "Time": "18:22"
}