{
  "By": "nrad6949", 
  "Contents": " เมื่อวานนี้ที่งานของ Lenovo มีการแถลงที่สำคัญสองเรื่องที่เกี่ยวข้องกัน เลยขอรวบเป็นข่าวเดียวครับ เรื่องแรก Google ออกมาประกาศบนเวทีของ Lenovo เมื่อวานนี้ว่า Project Tango ที่เป็นโครงการสร้างมือถือสแกนสภาพแวดล้อมในห้องได้ ได้ชื่อและโลโก้ใหม่อย่างเป็นทางการ นั่นก็คือ Tango (ตัดคำว่า Project) ออกไป พร้อมโลโก้ใหม่ ที่เป็นสามเหลี่ยมกับกล่องสี่เหลี่ยมสามมิติอยู่ด้านในสีส้ม - Google(1, 2) หลังจากการประกาศเปลี่ยนชื่อ Google และ Lenovo แถลงเปิดตัว PHAB2 Pro สมาร์ทโฟนเครื่องแรกที่มาพร้อมกับเทคโนโลยีของ Tango ใช้หน่วยประมวลผลกลางเป็น Qualcomm Snapdragon 652, หน้าจอขนาด 6.4 นิ้วที่ความละเอียด QHD, แรม 4GB, หน่วยความจำ 64 GB, แบตเตอรี่ 4,050 mAh, ระบบเสียง Dolby Atmos, กล้องหน้า 8 เมกะพิกเซล กล้องหลัง 16 เมกะพิกเซล ราคาเริ่มต้นที่ 499 ดอลลาร์สหรัฐ เริ่มจำหน่ายกันยายนนี้ นอกจากจะเปิดตัว PHAB2 Pro แล้ว Lenovo ยังเปิดตัว PHAB2 Plus ที่มีกล้อง 2 ตัว และ PHAB2 ที่เน้นเรื่อง AR (ทั้งสองตัวไม่มี Tango ส่วนสเปกที่ชัดเจนยังไม่มีในตอนนี้) เพิ่มเติมพร้อมกับ PHAB2 Pro ด้วย โดย PHAB2 Plus ราคาเริ่มต้นที่ 299 ดอลลาร์สหรัฐ และ PHAB2 ราคาเริ่มต้นที่ 199 ดอลลาร์สหรัฐ เริ่มจำหน่ายกันยายนนี้เช่นกัน - Lenovo PHAB2 Pro     PHAB2 Plus   PHAB2   โลโก้ใหม่ของ Tango    ", 
  "Date": "10/June/2016", 
  "Image-Link": [
    "https://www.blognone.com/sites/default/files/styles/thumbnail/public/news-thumbnails/Tango-Logos.png?itok=jGdQ_nDo", 
    "https://i.imgur.com/3ycnuye.jpg", 
    "https://i.imgur.com/ilGeU5V.jpg", 
    "https://i.imgur.com/uDsRil6.jpg", 
    "https://i.imgur.com/D1ijI1M.png", 
    "https://i.imgur.com/r42Zjnp.jpg", 
    "https://i.imgur.com/LNmDsGx.jpg", 
    "https://i.imgur.com/6lPEoRb.jpg", 
    "https://i.imgur.com/hMs9IMd.jpg", 
    "https://i.imgur.com/5tYfqUh.png", 
    "/sites/all/themes/blognone42/images/linebutton.png"
  ], 
  "Link": "https://www.blognone.com/node/82127", 
  "News": "Project Tango เปลี่ยนโลโก้และชื่อเป็น Tango, ร่วมกับ Lenovo เปิดตัว PHAB2 Pro", 
  "Tags": [
    "Lenovo", 
    "Project Tango", 
    "Mobile", 
    "Google"
  ], 
  "Time": "18:43"
}