{
  "By": "mk", 
  "Contents": " ข้อจำกัดอย่างหนึ่งของผู้ใช้ Twitter ที่ชอบ retweet (RT) คือเราไม่สามารถ retweet ข้อความของตัวเองได้ (บางกรณีเราอาจอยากนำข้อความเก่ามาพูดถึงอีกรอบ) แต่วันนี้ข้อจำกัดดังกล่าวหายไปแล้ว เพราะ Twitter อนุญาตให้เรา retweet หรือ quote ข้อความของตัวเองได้สักทีครับ Now you can easily Retweet or Quote Tweet yourself with just a few taps. Pick an old favorite and give it a try!https://t.co/bUj4ezQNOJ — Twitter (@twitter) June 14, 2016    ", 
  "Date": "15/June/2016", 
  "Image-Link": [
    "https://www.blognone.com/sites/default/files/styles/thumbnail/public/topics-images/twitter300.png?itok=DkxsrWCR", 
    "http://i.imgur.com/7p0VCyY.png", 
    "/sites/all/themes/blognone42/images/linebutton.png"
  ], 
  "Link": "https://www.blognone.com/node/82308", 
  "News": "Twitter อนุญาตให้ Retweet ข้อความของตัวเองได้แล้ว", 
  "Tags": [
    "Twitter"
  ], 
  "Time": "19:02"
}