{
  "By": "mk", 
  "Contents": " นโยบายเรื่องเกมของไมโครซอฟท์นั้นชัดเจนว่า ต้องการมอง Xbox One และพีซี Windows 10 เป็นแพลตฟอร์มที่ทัดเทียมกัน (ข่าวเก่า) ช่วงหลังเราจึงเห็นเกมที่พัฒนาโดย Microsoft Studios ของไมโครซอฟท์เอง ลงทั้ง Xbox One และพีซีควบคู่กันไป อย่างไรก็ตาม ช่วงหลังเกมของ Microsoft Studios บนพีซี กลับวางขายผ่าน Windows Store เพียงช่องทางเดียวเท่านั้น บรรดาเกมเมอร์เลยเกิดคำถามว่าถ้าอยากซื้อเกมของไมโครซอฟท์บน Steam จะต้องทำอย่างไร เรื่องนี้ Phil Spencer ผู้บริหารสูงสุดของ Xbox ออกมาตอบคำถามนี้แล้วว่าไมโครซอฟท์จะนำเกมของตัวเองกลับไปขายบน Steam อีกครั้ง (แต่ยังไม่ระบุเวลา)  โดย Spencer บอกว่า Valve คือพันธมิตรด้านซอฟต์แวร์ที่สำคัญบน Windows และอนาคตของ Steam  มีแต่จะใหญ่ขึ้นเรื่อยๆ ที่มา - MSpoweruser   ", 
  "Date": "17/June/2016", 
  "Image-Link": [
    "https://www.blognone.com/sites/default/files/styles/thumbnail/public/news-thumbnails/ms-studios.jpeg?itok=AMdcQYuu", 
    "/sites/all/themes/blognone42/images/linebutton.png"
  ], 
  "Link": "https://www.blognone.com/node/82390", 
  "News": "ไมโครซอฟท์ระบุ จะนำเกมของตัวเองไปขายผ่าน Steam ด้วย", 
  "Tags": [
    "Microsoft", 
    "Games", 
    "Steam"
  ], 
  "Time": "19:22"
}