{
  "By": "mk", 
  "Contents": " ไมโครซอฟท์ออกเครื่องมือตัวใหม่สำหรับ Windows 10 Anniversary Update ชื่อว่า Refresh Windows Tool ที่จะช่วยล้างเครื่องของเราให้สะอาดสดใหม่ ถึงขนาดไม่มี bloatware ใดๆ ที่ติดมาจากผู้ผลิตฮาร์ดแวร์ด้วยซ้ำ ที่ผ่านมา ไมโครซอฟท์มีฟีเจอร์ Reset this PC ที่ล้างเครื่องและติดตั้ง Windows ใหม่ แต่ตัวระบบปฏิบัติการที่ติดตั้งมาจากพาร์ทิชันสำรองในเครื่อง ซึ่งอาจเป็น Windows ที่ถูกปรับแต่งโดยผู้ผลิตฮาร์ดแวร์ และฝัง bloatware เข้ามาด้วย แต่เครื่องมือตัวใหม่นี้ต่างออกไป เพราะมันจะไปดาวน์โหลดอิมเมจ Windows 10 มาจากเซิร์ฟเวอร์ของไมโครซอฟท์แทน (ตอนนี้จะดาวน์โหลด Windows 10 Insider) ผลคือเราจะได้ Windows เวอร์ชันสะอาดสุดๆ ส่งตรงจากไมโครซอฟท์แทน (แล้วค่อยไปดาวน์โหลดไดรเวอร์ผ่าน Windows Update หรือจากเว็บไซต์ของผู้ผลิตพีซีอีกทีหนึ่ง) เครื่องมือตัวนี้จึงเหมาะมากสำหรับคนที่ซื้อพีซีมาใหม่ แล้วอยากได้ Windows 10 เวอร์ชันของไมโครซอฟท์แทนเวอร์ชันของผู้ผลิตพีซี อย่างไรก็ตาม ตอนนี้มันยังใช้ได้เฉพาะกับ Windows 10 Insider Build 14342 ขึ้นไปเท่านั้น (แต่ในอนาคตจะใช้กับ Anniversary Update ตัวจริงได้ด้วย) ที่มา - Microsoft, Computerworld    ", 
  "Date": "19/June/2016", 
  "Image-Link": [
    "https://www.blognone.com/sites/default/files/styles/thumbnail/public/topics-images/Windows_logo_Cyan_rgb_D.png?itok=bKOyx4bD", 
    "https://i.imgur.com/85Ic9pN.jpg", 
    "/sites/all/themes/blognone42/images/linebutton.png"
  ], 
  "Link": "https://www.blognone.com/node/82436", 
  "News": "ไมโครซอฟท์ออกเครื่องมือรีเซ็ต Windows 10 แบบใสสะอาด ปราศจาก Bloatware จากผู้ผลิตพีซี", 
  "Tags": [
    "Windows 10", 
    "Microsoft"
  ], 
  "Time": "20:09"
}