{
  "By": "nrad6949", 
  "Contents": " The Weather Company (TWC) บริษัทลูกของ IBM ประกาศความร่วมมือกับ Gogo ผู้ให้บริการอินเทอร์เน็ตไร้สายผ่านดาวเทียมสำหรับเครื่องบินเชิงพาณิชย์ของสหรัฐฯ เปิดตัว Turbulance Auto PIREP System (TAPS) ระบบรายงานสภาวะอากาศและหลุมอากาศของเครื่องบินแบบใหม่ ที่ใช้การเชื่อมต่ออินเทอร์เน็ต รายงานสภาพอากาศจริงให้แก่นักบิน TWC ระบุว่าปกติแล้ว นักบินจะได้รับ PIREP (Pilot Report) ที่เป็นการรายงานสภาพอากาศของเที่ยวบินนั้นๆ ที่เครื่องบินจะทำการบินผ่าน แต่มักจะมีข้อจำกัดคือมักไม่ใช่ข้อมูลในเวลานั้น (real-time) แต่ระบบ TAPS จะทำการส่งข้อมูลสภาพของเที่ยวบินขณะทำการบิน ไปให้ทาง TWC ประมวลผลโดยผ่านเครือข่ายของ Gogo ก่อนที่จะรวมข้อมูลเข้ากับพยากรณ์อากาศในเวลานั้นหรือสภาพอากาศในตอนนั้น แล้วส่งกลับขึ้นไปแจ้งนักบินให้ทราบเพื่อที่จะได้ดำเนินการอย่างทันท่วงที โดยเฉพาะอย่างยิ่งการหลีกเลี่ยงสภาวะอากาศแปรปรวน (turbulance) นอกจากการแจ้งเตือนสภาพอากาศใกล้เคียงของจริงแล้ว รายงานจากระบบ TAPS เองจะใช้เพื่อพัฒนาการพยากรณ์อากาศต่อไปในระยะยาวด้วย ที่มา - The Weather Company ผ่าน Engadget ภาพประกอบข่าวจาก Pixabay   ", 
  "Date": "18/June/2016", 
  "Image-Link": [
    "https://www.blognone.com/sites/default/files/styles/thumbnail/public/topics-images/379683LOGO.jpg?itok=_8VUuzcc", 
    "https://i.imgur.com/ORitn7m.jpg", 
    "/sites/all/themes/blognone42/images/linebutton.png"
  ], 
  "Link": "https://www.blognone.com/node/82417", 
  "News": "The Weather Company ร่วมกับ Gogo เปิดตัวระบบรายงานสภาพอากาศจริงให้กับนักบิน", 
  "Tags": [
    "The Weather Company", 
    "Gogo", 
    "IBM", 
    "Weather", 
    "Aviation"
  ], 
  "Time": "20:26"
}