{
  "By": "Lamicrosz", 
  "Contents": " Sky เครือข่ายสื่อเพื่อความบันเทิงของทางยุโรป เตรียมเปิดช่องใหม่ที่จะมีเนื้อหาเกี่ยวกับวงการการแข่งขัน eSports ตลอด 24 ชั่วโมง ในชื่อ Ginx eSports TV โดยจะร่วมลงทุนกับทาง ITV เครือข่ายโฆษณาที่ใหญ่ที่สุดในสหราชอาณาจักร เพื่อตอบรับกับกระแสการแข่งขันที่เริ่มได้รับความนิยมมากขึ้นเรื่อยๆ ทางสถานีเตรียมพร้อมที่จะถ่ายทอดสดการแข่งขัน ELeague ของทาง Turner, eSports Championship Series จากทาง FACEIT และการแข่งขัน The International จาก Valve และจับมือกับ Riot, Activision, EGL และ Gfinity ในการผลิตเนื้อหา ที่มา - Sky via Neowin   ", 
  "Date": "18/June/2016", 
  "Image-Link": [
    "https://www.blognone.com/sites/default/files/styles/thumbnail/public/news-thumbnails/13445389_1210428572314785_2708808734233486284_n.jpg?itok=Qeg6wJZd", 
    "/sites/all/themes/blognone42/images/linebutton.png"
  ], 
  "Link": "https://www.blognone.com/node/82419", 
  "News": "Ginx TV ช่องถ่ายทอดสดการแข่งขัน eSports โดยเฉพาะจาก Sky", 
  "Tags": [
    "eSport", 
    "Television", 
    "Games"
  ], 
  "Time": "22:16"
}