{
  "By": "BlackMiracle", 
  "Contents": " อีกไม่กี่สัปดาห์กูเกิลก็จะเปิดเผยให้โลกรู้กันแล้วว่าโค้ดเนมของ Android N จะเป็นขนมอะไร ซึ่งเร็วๆ นี้ Hiroshi Lockheimer หัวหน้าทีม Android ก็ได้บอกใบ้ผ่านทวิตเตอร์ถึง 2 ครั้งด้วยกันว่าน่าจะเป็น Nutella ช็อคโกแล็ตถั่วฮาเซลนัทที่โด่งดังนั่นเอง สัปดาห์ที่แล้วเขาทวีตว่า \"มีอยู่จานหนึ่งในเมนูนี้ที่ผมสนใจเป็นพิเศษ\" พร้อมกับโพสต์รูปเมนูของหวาน ซึ่งหนึ่งในนั้นมี Nutella pizzetta (พิซซ่าขนาดเล็กหน้า Nutella) และล่าสุดวันนี้เขาทวีตว่า \"กำลังทดสอบอะไรบางอย่างอยู่\" และโพสต์รูปสกรีนช็อตหน้าจอ Chromebook ของเขามา มีหน้าต่างเปิดอยู่มากมาย แต่หลังสุดเป็นหน้าค้นหาของกูเกิลถูกค้นว่า \"nutella\" ไม่รู้ว่านี่เป็นการบอกใบ้แบบจริงจัง หรืออยากล้อกันเล่นๆ นะครับ อีกไม่นานเราคงรู้กันว่า Android N จะได้ชื่ออะไรกันแน่ ที่มา - Android Authority There's one specific dish on this menu that I'm keenly interested in. pic.twitter.com/3y5oj9c40x — Hiroshi Lockheimer (@lockheimer) June 6, 2016 Just testing some stuff out... pic.twitter.com/6KPTEgXl9K — Hiroshi Lockheimer (@lockheimer) June 15, 2016  รูปจากเพจ Nutella Thailand   ", 
  "Date": "15/June/2016", 
  "Image-Link": [
    "https://www.blognone.com/sites/default/files/styles/thumbnail/public/topics-images/android-n.png?itok=cJOWuHvh", 
    "https://i.imgur.com/Fvu5x7e.jpg?1", 
    "/sites/all/themes/blognone42/images/linebutton.png"
  ], 
  "Link": "https://www.blognone.com/node/82311", 
  "News": "หัวหน้าทีม Android ใบ้ชื่อ Android N ว่าอาจเป็น Nutella", 
  "Tags": [
    "Android N", 
    "Android"
  ], 
  "Time": "22:44"
}