{
  "By": "trinakub", 
  "Contents": " Dead Rising ภาคก่อนๆ เป็นเกม Exclusive เฉพาะ Xbox กับ Windows 10 เท่านั้น ทำให้หลายคนอาจกังวลว่าภาคนี้ก็อาจจะเป็นเกม Exclusive เช่นกัน แต่ล่าสุดทาง Microsoft ได้ออกมายืนยันแล้วว่าเกม Dead Rising 4 จะเป็นเกม Exclusive ในช่วงเวลาจำกัดเท่านั้น และมีโอกาสที่จะทำลง PlayStation 4 กับ Steam ด้วย Dead Rising 4 มีกำหนดวางจำหน่ายวันที่ 6 ธันวาคม 2559 บน Xbox One และ Windows 10 ข้อความจากทาง Microsoft “Dead Rising 4 บน Xbox One ถูกพัฒนาโดย Capcom และได้ความร่วมมือในการจัดจำหน่ายโดย Microsoft ส่งผลให้แฟน ๆ ได้เล่น Dead Rising 4 ก่อนใครเพื่อนบน Xbox One และ Windows 10 ภายในเดือนธันวาคมนี้ และจะเป็นเกม Exclusive บน Windows 10 เป็นเวลาถึง 90 วัน หลังวันวางจำหน่าย ส่วนบนคอนโซล Xbox One จะ Exclusive เป็นเวลาถึง 1 ปี ก่อนที่จะเริ่มทยอยทำลงแพลตฟอร์มอื่น ๆ Microsoft มีความสัมพันธ์ที่ดีมาช้านานกับทาง Capcom รวมถึงเกม Dead Rising ที่เป็น Exclusive สำหรับ Xbox 360 และ Dead Rising 3 สำหรับ Xbox One ก่อนหน้านี้ด้วย และพวกเราก็รู้สึกยินดีที่ได้ร่วมมือกับ Capcom ในการนำวิสัยทัศน์อันทะเยอทะยานของพวกเขาที่มีต่อเกม Dead Rising 4 มาทำให้มีชีวิตชีวาอีกครั้ง” ที่มา – GameSpot   ", 
  "Date": "17/June/2016", 
  "Image-Link": [
    "https://www.blognone.com/sites/default/files/styles/thumbnail/public/news-thumbnails/Dead%20Rising%204%20Logo.jpg?itok=Sf1SF-jt", 
    "/sites/all/themes/blognone42/images/linebutton.png"
  ], 
  "Link": "https://www.blognone.com/node/82395", 
  "News": "Dead Rising 4 จะไม่เป็นเกม Exclusive เฉพาะ Xbox One และ Windows 10 เท่านั้น", 
  "Tags": [
    "Dead Rising", 
    "Games", 
    "Microsoft", 
    "Capcom"
  ], 
  "Time": "22:45"
}